module gitlab.com/mariiatuzovska/shark

go 1.19

require github.com/urfave/cli v1.22.10

require (
	github.com/cpuguy83/go-md2man/v2 v2.0.0-20190314233015-f79a8a8ca69d // indirect
	github.com/davecgh/go-spew v1.1.1 // indirect
	github.com/mariiatuzovska/logger v0.0.0-20220517160623-a3024fddb44a // indirect
	github.com/pmezard/go-difflib v1.0.0 // indirect
	github.com/russross/blackfriday/v2 v2.0.1 // indirect
	github.com/shurcooL/sanitized_anchor_name v1.0.0 // indirect
	github.com/stretchr/testify v1.8.1 // indirect
	gopkg.in/yaml.v3 v3.0.1 // indirect
)
